김태우_사례연구.knit
…
# (5) 몇살때 월급이 가장 높은지
welfare %>% 
  filter(!is.na(income)) %>% 
  group_by(age) %>% 
  summarise(income_mean = mean(income, na.rm=T)) %>% 
  arrange(-income_mean)

## # A tibble: 70 x 2
##      age income_mean
##    <dbl>       <dbl>
##  1    53        319.
##  2    44        313.
##  3    49        313.
##  4    40        306.
##  5    47        304.
##  6    42        301.
##  7    46        300.
##  8    55        296.
##  9    56        295.
## 10    45        294.
## # ... with 60 more rows
…
## 6. 나이에 따른 월급 변화 (성별 분리) ##
# (1) 나이와 성별 그룹 / 월급(평균, 표준편차, 중앙값, 최소값, 최대값, 빈도)
welfare %>% 
  filter(!is.na(income)) %>% 
  group_by(age, gender) %>% 
  summarise(income_mean = mean(income), 
            income_sd = sd(income),
            income_median = median(income),
            income_min = min(income),
            income_max = max(income),
            income_n = n())

## `summarise()` has grouped output by 'age'. You can override using the `.groups` argument.

## # A tibble: 135 x 8
## # Groups:   age [70]
##      age gender income_mean income_sd income_median income_min income_max
##    <dbl> <fct>        <dbl>     <dbl>         <dbl>      <dbl>      <dbl>
##  1    20 male           69      NA             69         69          69 
##  2    20 female        147.      8.27         147.       142.        153.
##  3    21 male          102.     23.4           97.5       63.6       140 
##  4    21 female        107.     64.0          110         22         258.
##  5    22 male          118.     65.1          103         36.7       280 
##  6    22 female        140.     82.6          150         15         358.
##  7    23 male          153.     61.3          139.        96         240 
##  8    23 female        139.     76.1          120         40         350 
##  9    24 male          158.     63.2          155         60         280 
## 10    24 female        126.     63.5          136         20         302.
## # ... with 125 more rows, and 1 more variable: income_n <int>
…
